Scratch/uart.vcd
$date
	Wed Mar  6 22:32:32 2024
$end
$version
	QuestaSim Version 2021.1
$end
$timescale
	1ns
$end

$scope module uart_tb $end
$var parameter 32 ! CLK_PERIOD $end
$var parameter 10 " DATA $end
$var parameter 10 # STATE $end
$var parameter 10 $ CTRL $end
$var parameter 10 % INTCLEAR $end
$var parameter 10 & INTSTATUS $end
$var parameter 10 ' BAUDDIV $end
$var reg 1 ( PCLK_TB $end
$var reg 1 ) PCLKG_TB $end
$var reg 1 * PRESETn_TB $end
$var reg 1 + PSEL_TB $end
$var reg 10 , PADDR_TB [11:2] $end
$var reg 1 - PENABLE_TB $end
$var reg 1 . PWRITE_TB $end
$var reg 32 / PWDATA_TB [31:0] $end
$var reg 4 0 ECOREVNUM_TB [3:0] $end
$var reg 1 1 RXD_TB $end
$var reg 32 2 PRDATA_TB [31:0] $end
$var reg 1 3 PREADY_TB $end
$var reg 1 4 PSLVERR_TB $end
$var reg 1 5 TXD_TB $end
$var reg 1 6 TXEN_TB $end
$var reg 1 7 BAUDTICK_TB $end
$var reg 1 8 TXINT_TB $end
$var reg 1 9 RXINT_TB $end
$var reg 1 : TXOVRINT_TB $end
$var reg 1 ; RXOVRINT_TB $end
$var reg 1 < UARTINT_TB $end

$scope task initialize $end
$upscope $end

$scope task reset $end
$upscope $end

$scope task APB_TRANS $end
$var reg 10 = address [9:0] $end
$var reg 1 > write $end
$var reg 32 ? data [31:0] $end
$upscope $end

$scope task receive $end
$var reg 10 @ data [9:0] $end
$var integer 32 A i $end
$upscope $end

$scope module DUT $end
$var parameter 8 B ARM_CMSDK_APB_UART_PID4 $end
$var parameter 8 C ARM_CMSDK_APB_UART_PID5 $end
$var parameter 8 D ARM_CMSDK_APB_UART_PID6 $end
$var parameter 8 E ARM_CMSDK_APB_UART_PID7 $end
$var parameter 8 F ARM_CMSDK_APB_UART_PID0 $end
$var parameter 8 G ARM_CMSDK_APB_UART_PID1 $end
$var parameter 8 H ARM_CMSDK_APB_UART_PID2 $end
$var parameter 4 I ARM_CMSDK_APB_UART_PID3 $end
$var parameter 8 J ARM_CMSDK_APB_UART_CID0 $end
$var parameter 8 K ARM_CMSDK_APB_UART_CID1 $end
$var parameter 8 L ARM_CMSDK_APB_UART_CID2 $end
$var parameter 8 M ARM_CMSDK_APB_UART_CID3 $end
$var wire 1 N PCLK $end
$var wire 1 O PCLKG $end
$var wire 1 P PRESETn $end
$var wire 1 Q PSEL $end
$var wire 1 R PADDR [11] $end
$var wire 1 S PADDR [10] $end
$var wire 1 T PADDR [9] $end
$var wire 1 U PADDR [8] $end
$var wire 1 V PADDR [7] $end
$var wire 1 W PADDR [6] $end
$var wire 1 X PADDR [5] $end
$var wire 1 Y PADDR [4] $end
$var wire 1 Z PADDR [3] $end
$var wire 1 [ PADDR [2] $end
$var wire 1 \ PENABLE $end
$var wire 1 ] PWRITE $end
$var wire 1 ^ PWDATA [31] $end
$var wire 1 _ PWDATA [30] $end
$var wire 1 ` PWDATA [29] $end
$var wire 1 a PWDATA [28] $end
$var wire 1 b PWDATA [27] $end
$var wire 1 c PWDATA [26] $end
$var wire 1 d PWDATA [25] $end
$var wire 1 e PWDATA [24] $end
$var wire 1 f PWDATA [23] $end
$var wire 1 g PWDATA [22] $end
$var wire 1 h PWDATA [21] $end
$var wire 1 i PWDATA [20] $end
$var wire 1 j PWDATA [19] $end
$var wire 1 k PWDATA [18] $end
$var wire 1 l PWDATA [17] $end
$var wire 1 m PWDATA [16] $end
$var wire 1 n PWDATA [15] $end
$var wire 1 o PWDATA [14] $end
$var wire 1 p PWDATA [13] $end
$var wire 1 q PWDATA [12] $end
$var wire 1 r PWDATA [11] $end
$var wire 1 s PWDATA [10] $end
$var wire 1 t PWDATA [9] $end
$var wire 1 u PWDATA [8] $end
$var wire 1 v PWDATA [7] $end
$var wire 1 w PWDATA [6] $end
$var wire 1 x PWDATA [5] $end
$var wire 1 y PWDATA [4] $end
$var wire 1 z PWDATA [3] $end
$var wire 1 { PWDATA [2] $end
$var wire 1 | PWDATA [1] $end
$var wire 1 } PWDATA [0] $end
$var wire 1 ~ ECOREVNUM [3] $end
$var wire 1 !! ECOREVNUM [2] $end
$var wire 1 "! ECOREVNUM [1] $end
$var wire 1 #! ECOREVNUM [0] $end
$var wire 1 $! PRDATA [31] $end
$var wire 1 %! PRDATA [30] $end
$var wire 1 &! PRDATA [29] $end
$var wire 1 '! PRDATA [28] $end
$var wire 1 (! PRDATA [27] $end
$var wire 1 )! PRDATA [26] $end
$var wire 1 *! PRDATA [25] $end
$var wire 1 +! PRDATA [24] $end
$var wire 1 ,! PRDATA [23] $end
$var wire 1 -! PRDATA [22] $end
$var wire 1 .! PRDATA [21] $end
$var wire 1 /! PRDATA [20] $end
$var wire 1 0! PRDATA [19] $end
$var wire 1 1! PRDATA [18] $end
$var wire 1 2! PRDATA [17] $end
$var wire 1 3! PRDATA [16] $end
$var wire 1 4! PRDATA [15] $end
$var wire 1 5! PRDATA [14] $end
$var wire 1 6! PRDATA [13] $end
$var wire 1 7! PRDATA [12] $end
$var wire 1 8! PRDATA [11] $end
$var wire 1 9! PRDATA [10] $end
$var wire 1 :! PRDATA [9] $end
$var wire 1 ;! PRDATA [8] $end
$var wire 1 <! PRDATA [7] $end
$var wire 1 =! PRDATA [6] $end
$var wire 1 >! PRDATA [5] $end
$var wire 1 ?! PRDATA [4] $end
$var wire 1 @! PRDATA [3] $end
$var wire 1 A! PRDATA [2] $end
$var wire 1 B! PRDATA [1] $end
$var wire 1 C! PRDATA [0] $end
$var wire 1 D! PREADY $end
$var reg 1 E! PSLVERR $end
$var wire 1 F! RXD $end
$var wire 1 G! TXD $end
$var wire 1 H! TXEN $end
$var wire 1 I! BAUDTICK $end
$var wire 1 J! TXINT $end
$var wire 1 K! RXINT $end
$var wire 1 L! TXOVRINT $end
$var wire 1 M! RXOVRINT $end
$var wire 1 N! UARTINT $end
$var wire 1 O! read_enable $end
$var wire 1 P! write_enable $end
$var wire 1 Q! write_enable00 $end
$var wire 1 R! write_enable04 $end
$var wire 1 S! write_enable08 $end
$var wire 1 T! write_enable0c $end
$var wire 1 U! write_enable10 $end
$var reg 8 V! read_mux_byte0 [7:0] $end
$var reg 8 W! read_mux_byte0_reg [7:0] $end
$var wire 1 X! read_mux_word [31] $end
$var wire 1 Y! read_mux_word [30] $end
$var wire 1 Z! read_mux_word [29] $end
$var wire 1 [! read_mux_word [28] $end
$var wire 1 \! read_mux_word [27] $end
$var wire 1 ]! read_mux_word [26] $end
$var wire 1 ^! read_mux_word [25] $end
$var wire 1 _! read_mux_word [24] $end
$var wire 1 `! read_mux_word [23] $end
$var wire 1 a! read_mux_word [22] $end
$var wire 1 b! read_mux_word [21] $end
$var wire 1 c! read_mux_word [20] $end
$var wire 1 d! read_mux_word [19] $end
$var wire 1 e! read_mux_word [18] $end
$var wire 1 f! read_mux_word [17] $end
$var wire 1 g! read_mux_word [16] $end
$var wire 1 h! read_mux_word [15] $end
$var wire 1 i! read_mux_word [14] $end
$var wire 1 j! read_mux_word [13] $end
$var wire 1 k! read_mux_word [12] $end
$var wire 1 l! read_mux_word [11] $end
$var wire 1 m! read_mux_word [10] $end
$var wire 1 n! read_mux_word [9] $end
$var wire 1 o! read_mux_word [8] $end
$var wire 1 p! read_mux_word [7] $end
$var wire 1 q! read_mux_word [6] $end
$var wire 1 r! read_mux_word [5] $end
$var wire 1 s! read_mux_word [4] $end
$var wire 1 t! read_mux_word [3] $end
$var wire 1 u! read_mux_word [2] $end
$var wire 1 v! read_mux_word [1] $end
$var wire 1 w! read_mux_word [0] $end
$var wire 1 x! pid3_value [3] $end
$var wire 1 y! pid3_value [2] $end
$var wire 1 z! pid3_value [1] $end
$var wire 1 {! pid3_value [0] $end
$var reg 7 |! reg_ctrl [6:0] $end
$var reg 8 }! reg_tx_buf [7:0] $end
$var reg 8 ~! reg_rx_buf [7:0] $end
$var reg 20 !" reg_baud_div [19:0] $end
$var reg 16 "" reg_baud_cntr_i [15:0] $end
$var wire 1 #" nxt_baud_cntr_i [15] $end
$var wire 1 $" nxt_baud_cntr_i [14] $end
$var wire 1 %" nxt_baud_cntr_i [13] $end
$var wire 1 &" nxt_baud_cntr_i [12] $end
$var wire 1 '" nxt_baud_cntr_i [11] $end
$var wire 1 (" nxt_baud_cntr_i [10] $end
$var wire 1 )" nxt_baud_cntr_i [9] $end
$var wire 1 *" nxt_baud_cntr_i [8] $end
$var wire 1 +" nxt_baud_cntr_i [7] $end
$var wire 1 ," nxt_baud_cntr_i [6] $end
$var wire 1 -" nxt_baud_cntr_i [5] $end
$var wire 1 ." nxt_baud_cntr_i [4] $end
$var wire 1 /" nxt_baud_cntr_i [3] $end
$var wire 1 0" nxt_baud_cntr_i [2] $end
$var wire 1 1" nxt_baud_cntr_i [1] $end
$var wire 1 2" nxt_baud_cntr_i [0] $end
$var reg 4 3" reg_baud_cntr_f [3:0] $end
$var wire 1 4" nxt_baud_cntr_f [3] $end
$var wire 1 5" nxt_baud_cntr_f [2] $end
$var wire 1 6" nxt_baud_cntr_f [1] $end
$var wire 1 7" nxt_baud_cntr_f [0] $end
$var wire 1 8" mapped_cntr_f [3] $end
$var wire 1 9" mapped_cntr_f [2] $end
$var wire 1 :" mapped_cntr_f [1] $end
$var wire 1 ;" mapped_cntr_f [0] $end
$var reg 1 <" reg_baud_tick $end
$var reg 1 =" baud_updated $end
$var wire 1 >" reload_i $end
$var wire 1 ?" reload_f $end
$var wire 1 @" baud_div_en $end
$var wire 1 A" uart_status [3] $end
$var wire 1 B" uart_status [2] $end
$var wire 1 C" uart_status [1] $end
$var wire 1 D" uart_status [0] $end
$var reg 1 E" reg_rx_overrun $end
$var wire 1 F" rx_overrun $end
$var reg 1 G" reg_tx_overrun $end
$var wire 1 H" tx_overrun $end
$var wire 1 I" nxt_rx_overrun $end
$var wire 1 J" nxt_tx_overrun $end
$var reg 1 K" reg_txintr $end
$var reg 1 L" reg_rxintr $end
$var wire 1 M" tx_overflow_intr $end
$var wire 1 N" rx_overflow_intr $end
$var wire 1 O" intr_state [3] $end
$var wire 1 P" intr_state [2] $end
$var wire 1 Q" intr_state [1] $end
$var wire 1 R" intr_state [0] $end
$var wire 1 S" intr_stat_set [1] $end
$var wire 1 T" intr_stat_set [0] $end
$var wire 1 U" intr_stat_clear [1] $end
$var wire 1 V" intr_stat_clear [0] $end
$var reg 4 W" tx_state [3:0] $end
$var reg 5 X" nxt_tx_state [4:0] $end
$var wire 1 Y" tx_state_update $end
$var wire 1 Z" tx_state_inc $end
$var reg 4 [" tx_tick_cnt [3:0] $end
$var wire 1 \" nxt_tx_tick_cnt [4] $end
$var wire 1 ]" nxt_tx_tick_cnt [3] $end
$var wire 1 ^" nxt_tx_tick_cnt [2] $end
$var wire 1 _" nxt_tx_tick_cnt [1] $end
$var wire 1 `" nxt_tx_tick_cnt [0] $end
$var reg 8 a" tx_shift_buf [7:0] $end
$var wire 1 b" nxt_tx_shift_buf [7] $end
$var wire 1 c" nxt_tx_shift_buf [6] $end
$var wire 1 d" nxt_tx_shift_buf [5] $end
$var wire 1 e" nxt_tx_shift_buf [4] $end
$var wire 1 f" nxt_tx_shift_buf [3] $end
$var wire 1 g" nxt_tx_shift_buf [2] $end
$var wire 1 h" nxt_tx_shift_buf [1] $end
$var wire 1 i" nxt_tx_shift_buf [0] $end
$var wire 1 j" tx_buf_ctrl_shift $end
$var wire 1 k" tx_buf_ctrl_load $end
$var reg 1 l" tx_buf_full $end
$var reg 1 m" reg_txd $end
$var wire 1 n" nxt_txd $end
$var wire 1 o" update_reg_txd $end
$var wire 1 p" tx_buf_clear $end
$var reg 1 q" rxd_sync_1 $end
$var reg 1 r" rxd_sync_2 $end
$var reg 3 s" rxd_lpf [2:0] $end
$var wire 1 t" nxt_rxd_lpf [2] $end
$var wire 1 u" nxt_rxd_lpf [1] $end
$var wire 1 v" nxt_rxd_lpf [0] $end
$var wire 1 w" rx_shift_in $end
$var reg 4 x" rx_state [3:0] $end
$var reg 5 y" nxt_rx_state [4:0] $end
$var wire 1 z" rx_state_update $end
$var reg 4 {" rx_tick_cnt [3:0] $end
$var wire 1 |" nxt_rx_tick_cnt [4] $end
$var wire 1 }" nxt_rx_tick_cnt [3] $end
$var wire 1 ~" nxt_rx_tick_cnt [2] $end
$var wire 1 !# nxt_rx_tick_cnt [1] $end
$var wire 1 "# nxt_rx_tick_cnt [0] $end
$var wire 1 ## update_rx_tick_cnt $end
$var wire 1 $# rx_state_inc $end
$var reg 7 %# rx_shift_buf [6:0] $end
$var wire 1 &# nxt_rx_shift_buf [6] $end
$var wire 1 '# nxt_rx_shift_buf [5] $end
$var wire 1 (# nxt_rx_shift_buf [4] $end
$var wire 1 )# nxt_rx_shift_buf [3] $end
$var wire 1 *# nxt_rx_shift_buf [2] $end
$var wire 1 +# nxt_rx_shift_buf [1] $end
$var wire 1 ,# nxt_rx_shift_buf [0] $end
$var reg 1 -# rx_buf_full $end
$var wire 1 .# nxt_rx_buf_full $end
$var wire 1 /# rxbuf_sample $end
$var wire 1 0# rx_data_read $end
$var wire 1 1# nxt_rx_buf [7] $end
$var wire 1 2# nxt_rx_buf [6] $end
$var wire 1 3# nxt_rx_buf [5] $end
$var wire 1 4# nxt_rx_buf [4] $end
$var wire 1 5# nxt_rx_buf [3] $end
$var wire 1 6# nxt_rx_buf [2] $end
$var wire 1 7# nxt_rx_buf [1] $end
$var wire 1 8# nxt_rx_buf [0] $end
$upscope $end
$upscope $end

$scope begin std $end
$upscope $end
$enddefinitions $end
#0
$dumpvars
0(
0)
0*
0+
b0 ,
0-
0.
b0 /
b0 0
11
b0 2
13
04
15
06
07
08
09
0:
0;
0<
0E!
b0 V!
b0 W!
b0 |!
b0 }!
b0 ~!
b0 !"
b0 ""
b0 3"
0<"
0="
0E"
0G"
0K"
0L"
b0 W"
b0 X"
b0 ["
b0 a"
0l"
1m"
1q"
1r"
b111 s"
b0 x"
b0 y"
b0 {"
b0 %#
0-#
bx =
x>
bx ?
bx @
b1010 !
b0 "
b1 #
b10 $
b11 %
b11 &
b100 '
b100 B
b0 C
b0 D
b0 E
b100001 F
b10111000 G
b11011 H
b0 I
b1101 J
b11110000 K
b101 L
b10110001 M
b0 A
0O!
0P!
0Q!
0R!
0S!
0T!
0U!
0w!
0v!
0u!
0t!
0s!
0r!
0q!
0p!
0o!
0n!
0m!
0l!
0k!
0j!
0i!
0h!
0g!
0f!
0e!
0d!
0c!
0b!
0a!
0`!
0_!
0^!
0]!
0\!
0[!
0Z!
0Y!
0X!
0{!
0z!
0y!
0x!
12"
11"
10"
1/"
1."
1-"
1,"
1+"
1*"
1)"
1("
1'"
1&"
1%"
1$"
1#"
17"
16"
15"
14"
0;"
0:"
09"
08"
0>"
0?"
0@"
0D"
0C"
0B"
0A"
0F"
0H"
0I"
0J"
0M"
0N"
0R"
0Q"
0P"
0O"
0T"
0S"
0V"
0U"
0Y"
0Z"
0`"
0_"
0^"
0]"
0\"
0i"
0h"
0g"
0f"
0e"
0d"
0c"
1b"
0j"
0k"
1n"
0o"
0p"
1v"
1u"
1t"
1w"
0z"
0"#
0!#
0~"
0}"
0|"
0##
0$#
0,#
0+#
0*#
0)#
0(#
0'#
1&#
0.#
0/#
00#
08#
07#
06#
05#
04#
03#
02#
11#
1F!
0#!
0"!
0!!
0~
0}
0|
0{
0z
0y
0x
0w
0v
0u
0t
0s
0r
0q
0p
0o
0n
0m
0l
0k
0j
0i
0h
0g
0f
0e
0d
0c
0b
0a
0`
0_
0^
0]
0\
0[
0Z
0Y
0X
0W
0V
0U
0T
0S
0R
0Q
0P
0O
0N
0C!
0B!
0A!
0@!
0?!
0>!
0=!
0<!
0;!
0:!
09!
08!
07!
06!
05!
04!
03!
02!
01!
00!
0/!
0.!
0-!
0,!
0+!
0*!
0)!
0(!
0'!
0&!
0%!
0$!
1D!
1G!
0H!
0I!
0J!
0K!
0L!
0M!
0N!
$end
#5
1(
1)
1N
1O
#10
0(
0)
0N
0O
#15
1(
1)
1N
1O
#20
0(
0)
0N
0O
#25
1(
1)
1N
1O
#30
0(
0)
0N
0O
#35
1(
1)
1N
1O
#40
0(
0)
0N
0O
#45
1(
1)
1N
1O
#50
0(
0)
0N
0O
#55
1(
1)
1N
1O
#60
0(
0)
0N
0O
#65
1(
1)
1N
1O
#70
0(
0)
0N
0O
#75
1(
1)
1N
1O
#80
0(
0)
0N
0O
#85
1(
1)
1N
1O
#90
0(
0)
0N
0O
#95
1(
1)
1N
1O
#100
0(
0)
0N
0O
1*
1P
#105
1(
1)
1N
1O
#110
0(
0)
0N
0O
#115
1(
1)
1N
1O
#120
0(
0)
0N
0O
#125
1(
1)
1N
1O
#130
0(
0)
0N
0O
#135
1(
1)
1N
1O
#140
0(
0)
0N
0O
#145
1(
1)
1N
1O
#150
0(
0)
0N
0O
#155
1(
1)
1N
1O
#160
0(
0)
0N
0O
#165
1(
1)
1N
1O
#170
0(
0)
0N
0O
#175
1(
1)
1N
1O
#180
0(
0)
0N
0O
#185
1(
1)
1N
1O
#190
0(
0)
0N
0O
#195
1(
1)
1N
1O
#200
0(
0)
0N
0O
#205
1(
1)
1N
1O
#210
0(
0)
0N
0O
#215
1(
1)
1N
1O
#220
0(
0)
0N
0O
#225
1(
1)
1N
1O
#230
0(
0)
0N
0O
#235
1(
1)
1N
1O
#240
0(
0)
0N
0O
#245
1(
1)
1N
1O
#250
0(
0)
0N
0O
#255
1(
1)
1N
1O
#260
0(
0)
0N
0O
#265
1(
1)
1N
1O
#270
0(
0)
0N
0O
#275
1(
1)
1N
1O
#280
0(
0)
0N
0O
#285
1(
1)
1N
1O
#290
0(
0)
0N
0O
#295
1(
1)
1N
1O
#300
b10 =
1>
b111101 ?
0(
0)
0N
0O
#305
1(
1)
1N
1O
b10 ,
1.
b111101 /
1+
1Q
1O!
10#
1]
1}
1{
1z
1y
1x
1Z
0O!
1P!
00#
1S!
#310
0(
0)
0N
0O
#315
1(
1)
1N
1O
b0 =
b11010010 ?
b111101 |!
1-
1@"
1H!
16
1\
1>"
1?"
0P!
02"
01"
00"
0/"
0."
0-"
0,"
0+"
0*"
0)"
0("
0'"
0&"
0%"
0$"
0#"
0S!
b111101 V!
#320
0(
0)
0N
0O
#325
1(
1)
1N
1O
b1111 3"
1<"
b0 ,
b11010010 /
0-
1##
0?"
1`"
1"#
1;"
1:"
19"
18"
07"
1I!
0\
1P!
17
1S!
0}
1|
0{
0z
0x
1w
1v
0Z
0S!
1Q!
b0 V!
#330
0(
0)
0N
0O
#335
1(
1)
1N
1O
b10010010 ?
b11010010 }!
1l"
b1 {"
b1 ["
b1110 3"
1-
1p"
1k"
1T"
1Y"
08"
17"
06"
0`"
1_"
0"#
1!#
1h"
1e"
1c"
1\
0P!
0Q!
1D"
b1 X"
#340
0(
0)
0N
0O
#345
1(
1)
1N
1O
b1 W"
1K"
b11010010 a"
b1101 3"
b10 ["
b10 {"
0l"
b10010010 /
0-
0T"
1N!
0p"
0k"
1<
0Y"
1J!
1"#
09"
18"
07"
1i"
0h"
1f"
0e"
1d"
0_"
0\
1P!
18
1Q!
1Z"
0w
0D"
1R"
1Y"
b10 X"
#350
0(
0)
0N
0O
#355
1(
1)
1N
1O
b10010010 }!
1l"
b11 {"
b0 ["
b1100 3"
b10 W"
1-
1H"
1J"
08"
17"
16"
05"
1`"
0"#
0!#
1~"
0n"
1\
0P!
1o"
0Q!
0H"
0J"
1D"
0Z"
0Y"
#360
0(
0)
0N
0O
#365
1(
1)
1N
1O
0m"
b1011 3"
b1 ["
b100 {"
0o"
0G!
1"#
0`"
1_"
0:"
19"
18"
07"
05
#370
0(
0)
0N
0O
#375
1(
1)
1N
1O
b101 {"
b10 ["
b1010 3"
08"
17"
06"
1`"
0"#
1!#
#380
0(
0)
0N
0O
#385
1(
1)
1N
1O
b1001 3"
b11 ["
b110 {"
1"#
0`"
0_"
1^"
09"
18"
07"
#390
0(
0)
0N
0O
#395
1(
1)
1N
1O
b111 {"
b100 ["
b1000 3"
08"
17"
16"
15"
04"
1`"
0"#
0!#
0~"
1}"
#400
0(
0)
0N
0O
#405
1(
1)
1N
1O
b111 3"
b101 ["
b1000 {"
1"#
0`"
1_"
0;"
1:"
19"
18"
07"
#410
0(
0)
0N
0O
#415
1(
1)
1N
1O
b1001 {"
b110 ["
b110 3"
08"
17"
06"
1`"
0"#
1!#
#420
0(
0)
0N
0O
#425
1(
1)
1N
1O
b11 =
b1 ?
b101 3"
b111 ["
b1010 {"
1"#
0`"
0_"
0^"
1]"
09"
18"
07"
#430
0(
0)
0N
0O
#435
1(
1)
1N
1O
b1011 {"
b1000 ["
b100 3"
b11 ,
b1 /
0-
08"
17"
16"
05"
1`"
0"#
0!#
1~"
0\
1P!
1Q!
1H"
1J"
1}
0|
0y
0v
1[
1Z
1T!
0Q!
0H"
0J"
1V"
b1 V!
#440
0(
0)
0N
0O
#445
1(
1)
1N
1O
0K"
b11 3"
b1001 ["
b1100 {"
1-
0N!
0<
0J!
1"#
0`"
1_"
0:"
19"
18"
07"
1\
0P!
08
0T!
0V"
0R"
b0 V!
#450
0(
0)
0N
0O
#455
1(
1)
1N
1O
b1101 {"
b1010 ["
b10 3"
08"
17"
06"
1`"
0"#
1!#
#460
0(
0)
0N
0O
#465
1(
1)
1N
1O
b1 3"
b1011 ["
b1110 {"
1"#
0`"
0_"
1^"
09"
18"
07"
#470
0(
0)
0N
0O
#475
1(
1)
1N
1O
b1111 {"
b1100 ["
b0 3"
1?"
08"
17"
16"
15"
14"
1`"
0"#
0!#
0~"
0}"
1|"
1$#
1z"
#480
0(
0)
0N
0O
#485
1(
1)
1N
1O
b1000000 %#
b1111 3"
b1101 ["
b0 {"
0?"
1"#
0|"
0`"
1_"
1;"
1:"
19"
18"
07"
12#
1'#
0$#
0z"
#490
0(
0)
0N
0O
#495
1(
1)
1N
1O
b1 {"
b1110 ["
b1110 3"
08"
17"
06"
1`"
0"#
1!#
#500
0(
0)
0N
0O
#505
1(
1)
1N
1O
b1101 3"
b1111 ["
b10 {"
1"#
0`"
0_"
0^"
0]"
1\"
09"
18"
07"
1Z"
1Y"
b11 X"
#510
0(
0)
0N
0O
#515
1(
1)
1N
1O
b0 =
b10101001 ?
b11 W"
b11 {"
b0 ["
b1100 3"
1j"
08"
17"
16"
05"
0"#
0!#
1~"
1`"
0\"
0Z"
0j"
0Y"
#520
0(
0)
0N
0O
#525
1(
1)
1N
1O
b1011 3"
b1 ["
b100 {"
b0 ,
b10101001 /
0-
1"#
0`"
1_"
0:"
19"
18"
07"
0\
1P!
1T!
1V"
1z
1x
1v
0[
0Z
0T!
1Q!
1H"
1J"
0V"
#530
0(
0)
0N
0O
#535
1(
1)
1N
1O
b10101001 }!
1G"
b101 {"
b10 ["
b1010 3"
1-
1M"
1L!
1N!
1<
1:
08"
17"
06"
1`"
0"#
1!#
1\
0P!
0Q!
0H"
1P"
1B"
#540
0(
0)
0N
0O
#545
1(
1)
1N
1O
b1001 3"
b11 ["
b110 {"
1"#
0`"
0_"
1^"
09"
18"
07"
#550
0(
0)
0N
0O
#555
1(
1)
1N
1O
b111 {"
b100 ["
b1000 3"
08"
17"
16"
15"
04"
1`"
0"#
0!#
0~"
1}"
#560
0(
0)
0N
0O
#565
1(
1)
1N
1O
b111 3"
b101 ["
b1000 {"
1"#
0`"
1_"
0;"
1:"
19"
18"
07"
#570
0(
0)
0N
0O
#575
1(
1)
1N
1O
b1001 {"
b110 ["
b110 3"
08"
17"
06"
1`"
0"#
1!#
#580
0(
0)
0N
0O
#585
1(
1)
1N
1O
b101 3"
b111 ["
b1010 {"
1"#
0`"
0_"
0^"
1]"
09"
18"
07"
#590
0(
0)
0N
0O
#595
1(
1)
1N
1O
b1011 {"
b1000 ["
b100 3"
08"
17"
16"
05"
1`"
0"#
0!#
1~"
#600
0(
0)
0N
0O
#605
1(
1)
1N
1O
b11 =
b1 ?
b11 3"
b1001 ["
b1100 {"
1"#
0`"
1_"
0:"
19"
18"
07"
#610
0(
0)
0N
0O
#615
1(
1)
1N
1O
b1101 {"
b1010 ["
b10 3"
b11 ,
b1 /
0-
08"
17"
06"
1`"
0"#
1!#
0\
1P!
1Q!
1H"
0z
0x
0v
1[
1Z
1T!
0Q!
0H"
1V"
b100 V!
#620
0(
0)
0N
0O
#625
1(
1)
1N
1O
b0 =
b11101101 ?
b1 3"
b1011 ["
b1110 {"
1-
1"#
0`"
0_"
1^"
09"
18"
07"
1\
0P!
0T!
0V"
#630
0(
0)
0N
0O
#635
1(
1)
1N
1O
b1111 {"
b1100 ["
b0 3"
b0 ,
b11101101 /
0-
1?"
08"
17"
16"
15"
14"
1`"
0"#
0!#
0~"
0}"
1|"
0\
1P!
1T!
1V"
1$#
1{
1z
1x
1w
1v
0[
0Z
0J"
1z"
0T!
1Q!
1H"
1J"
0V"
b0 V!
#640
0(
0)
0N
0O
#645
1(
1)
1N
1O
b11101101 }!
b1100000 %#
b1111 3"
b1101 ["
b0 {"
1-
0?"
1"#
0|"
0`"
1_"
1;"
1:"
19"
18"
07"
13#
1(#
1\
0P!
0Q!
0H"
0$#
0z"
#650
0(
0)
0N
0O
#655
1(
1)
1N
1O
b1 {"
b1110 ["
b1110 3"
08"
17"
06"
1`"
0"#
1!#
#660
0(
0)
0N
0O
#665
1(
1)
1N
1O
b1101 3"
b1111 ["
b10 {"
1"#
0`"
0_"
0^"
0]"
1\"
09"
18"
07"
1Z"
1j"
1Y"
b100 X"
#670
0(
0)
0N
0O
#675
1(
1)
1N
1O
b100 W"
b11101001 a"
b11 {"
b0 ["
b1100 3"
1n"
08"
17"
16"
05"
0"#
0!#
1~"
0i"
1g"
0f"
1e"
1`"
0\"
1o"
0Z"
0j"
0Y"
#680
0(
0)
0N
0O
#685
1(
1)
1N
1O
1m"
b1011 3"
b1 ["
b100 {"
0o"
1G!
1"#
0`"
1_"
0:"
19"
18"
07"
15
#690
0(
0)
0N
0O
#695
1(
1)
1N
1O
b101 {"
b10 ["
b1010 3"
08"
17"
06"
1`"
0"#
1!#
#700
0(
0)
0N
0O
#705
1(
1)
1N
1O
b1001 3"
b11 ["
b110 {"
1"#
0`"
0_"
1^"
09"
18"
07"
#710
0(
0)
0N
0O
#715
1(
1)
1N
1O
b111 {"
b100 ["
b1000 3"
08"
17"
16"
15"
04"
1`"
0"#
0!#
0~"
1}"
#720
0(
0)
0N
0O
#725
1(
1)
1N
1O
b111 3"
b101 ["
b1000 {"
1"#
0`"
1_"
0;"
1:"
19"
18"
07"
#730
0(
0)
0N
0O
#735
1(
1)
1N
1O
b1001 {"
b110 ["
b110 3"
08"
17"
06"
1`"
0"#
1!#
#740
0(
0)
0N
0O
#745
1(
1)
1N
1O
b101 3"
b111 ["
b1010 {"
1"#
0`"
0_"
0^"
1]"
09"
18"
07"
#750
0(
0)
0N
0O
#755
1(
1)
1N
1O
b1011 {"
b1000 ["
b100 3"
08"
17"
16"
05"
1`"
0"#
0!#
1~"
#760
0(
0)
0N
0O
#765
1(
1)
1N
1O
b11 3"
b1001 ["
b1100 {"
1"#
0`"
1_"
0:"
19"
18"
07"
#770
0(
0)
0N
0O
#775
1(
1)
1N
1O
b1101 {"
b1010 ["
b10 3"
08"
17"
06"
1`"
0"#
1!#
#780
0(
0)
0N
0O
#785
1(
1)
1N
1O
b1 3"
b1011 ["
b1110 {"
1"#
0`"
0_"
1^"
09"
18"
07"
#790
0(
0)
0N
0O
#795
1(
1)
1N
1O
b1111 {"
b1100 ["
b0 3"
1?"
08"
17"
16"
15"
14"
1`"
0"#
0!#
0~"
0}"
1|"
1$#
1z"
#800
0(
0)
0N
0O
#805
1(
1)
1N
1O
b1110000 %#
b1111 3"
b1101 ["
b0 {"
0?"
1"#
0|"
0`"
1_"
1;"
1:"
19"
18"
07"
14#
1)#
0$#
0z"
#810
0(
0)
0N
0O
#815
1(
1)
1N
1O
b1 {"
b1110 ["
b1110 3"
08"
17"
06"
1`"
0"#
1!#
#820
0(
0)
0N
0O
#825
1(
1)
1N
1O
b1101 3"
b1111 ["
b10 {"
1"#
0`"
0_"
0^"
0]"
1\"
09"
18"
07"
1Z"
1j"
1Y"
b101 X"
#830
0(
0)
0N
0O
#835
1(
1)
1N
1O
b101 W"
b11110100 a"
b11 {"
b0 ["
b1100 3"
0n"
08"
17"
16"
05"
0"#
0!#
1~"
1h"
0g"
1f"
1`"
0\"
1o"
0Z"
0j"
0Y"
#840
0(
0)
0N
0O
#845
1(
1)
1N
1O
0m"
b1011 3"
b1 ["
b100 {"
0o"
0G!
1"#
0`"
1_"
0:"
19"
18"
07"
05
#850
0(
0)
0N
0O
#855
1(
1)
1N
1O
b101 {"
b10 ["
b1010 3"
08"
17"
06"
1`"
0"#
1!#
#860
0(
0)
0N
0O
#865
1(
1)
1N
1O
b1001 3"
b11 ["
b110 {"
1"#
0`"
0_"
1^"
09"
18"
07"
#870
0(
0)
0N
0O
#875
1(
1)
1N
1O
b111 {"
b100 ["
b1000 3"
08"
17"
16"
15"
04"
1`"
0"#
0!#
0~"
1}"
#880
0(
0)
0N
0O
#885
1(
1)
1N
1O
b111 3"
b101 ["
b1000 {"
1"#
0`"
1_"
0;"
1:"
19"
18"
07"
#890
0(
0)
0N
0O
#895
1(
1)
1N
1O
b1001 {"
b110 ["
b110 3"
08"
17"
06"
1`"
0"#
1!#
#900
0(
0)
0N
0O
#905
1(
1)
1N
1O
b101 3"
b111 ["
b1010 {"
1"#
0`"
0_"
0^"
1]"
09"
18"
07"
#910
0(
0)
0N
0O
#915
1(
1)
1N
1O
b1011 {"
b1000 ["
b100 3"
08"
17"
16"
05"
1`"
0"#
0!#
1~"
#920
0(
0)
0N
0O
